%YAML 1.1
%TAG !u! tag:unity3d.com,2011:
--- !u!114 &1
MonoBehaviour:
  m_ObjectHideFlags: 52
  m_CorrespondingSourceObject: {fileID: 0}
  m_PrefabInstance: {fileID: 0}
  m_PrefabAsset: {fileID: 0}
  m_GameObject: {fileID: 0}
  m_Enabled: 1
  m_EditorHideFlags: 0
  m_Script: {fileID: 11500000, guid: d80edd6caba93514eb01722041fe50b4, type: 3}
  m_Name: Random Brush
  m_EditorClassIdentifier: 
  m_Cells:
  - m_Tile: {fileID: 0}
    m_Matrix:
      e00: 1
      e01: 0
      e02: 0
      e03: 0
      e10: 0
      e11: 1
      e12: 0
      e13: 0
      e20: 0
      e21: 0
      e22: 1
      e23: 0
      e30: 0
      e31: 0
      e32: 0
      e33: 1
    m_Color: {r: 1, g: 1, b: 1, a: 1}
  - m_Tile: {fileID: 0}
    m_Matrix:
      e00: 1
      e01: 0
      e02: 0
      e03: 0
      e10: 0
      e11: 1
      e12: 0
      e13: 0
      e20: 0
      e21: 0
      e22: 1
      e23: 0
      e30: 0
      e31: 0
      e32: 0
      e33: 1
    m_Color: {r: 1, g: 1, b: 1, a: 1}
  - m_Tile: {fileID: 0}
    m_Matrix:
      e00: 1
      e01: 0
      e02: 0
      e03: 0
      e10: 0
      e11: 1
      e12: 0
      e13: 0
      e20: 0
      e21: 0
      e22: 1
      e23: 0
      e30: 0
      e31: 0
      e32: 0
      e33: 1
    m_Color: {r: 1, g: 1, b: 1, a: 1}
  - m_Tile: {fileID: 0}
    m_Matrix:
      e00: 1
      e01: 0
      e02: 0
      e03: 0
      e10: 0
      e11: 1
      e12: 0
      e13: 0
      e20: 0
      e21: 0
      e22: 1
      e23: 0
      e30: 0
      e31: 0
      e32: 0
      e33: 1
    m_Color: {r: 1, g: 1, b: 1, a: 1}
  - m_Tile: {fileID: 0}
    m_Matrix:
      e00: 1
      e01: 0
      e02: 0
      e03: 0
      e10: 0
      e11: 1
      e12: 0
      e13: 0
      e20: 0
      e21: 0
      e22: 1
      e23: 0
      e30: 0
      e31: 0
      e32: 0
      e33: 1
    m_Color: {r: 1, g: 1, b: 1, a: 1}
  - m_Tile: {fileID: 0}
    m_Matrix:
      e00: 1
      e01: 0
      e02: 0
      e03: 0
      e10: 0
      e11: 1
      e12: 0
      e13: 0
      e20: 0
      e21: 0
      e22: 1
      e23: 0
      e30: 0
      e31: 0
      e32: 0
      e33: 1
    m_Color: {r: 1, g: 1, b: 1, a: 1}
  - m_Tile: {fileID: 0}
    m_Matrix:
      e00: 1
      e01: 0
      e02: 0
      e03: 0
      e10: 0
      e11: 1
      e12: 0
      e13: 0
      e20: 0
      e21: 0
      e22: 1
      e23: 0
      e30: 0
      e31: 0
      e32: 0
      e33: 1
    m_Color: {r: 1, g: 1, b: 1, a: 1}
  - m_Tile: {fileID: 0}
    m_Matrix:
      e00: 1
      e01: 0
      e02: 0
      e03: 0
      e10: 0
      e11: 1
      e12: 0
      e13: 0
      e20: 0
      e21: 0
      e22: 1
      e23: 0
      e30: 0
      e31: 0
      e32: 0
      e33: 1
    m_Color: {r: 1, g: 1, b: 1, a: 1}
  m_Size: {x: 8, y: 1, z: 1}
  m_Pivot: {x: 7, y: 0, z: 0}
  randomTileSetSize: {x: 1, y: 1, z: 1}
  randomTileSets:
  - randomTiles:
    - {fileID: 11400000, guid: 9219c9b12ae23214ca747d03ee7df583, type: 2}
  - randomTiles:
    - {fileID: 11400000, guid: f98ea4f76b3f2a147a7f666d53f528dc, type: 2}
  - randomTiles:
    - {fileID: 11400000, guid: 3f6945b02dcf52840a670ac25e4b093a, type: 2}
  - randomTiles:
    - {fileID: 11400000, guid: 6f423ae7564d4df489a8916119dd544d, type: 2}
  - randomTiles:
    - {fileID: 11400000, guid: aa09cd53dd7d23f4b94d51eecca8d1be, type: 2}
  - randomTiles:
    - {fileID: 11400000, guid: 91229011f3cabf94d98ac36a28dd9ea3, type: 2}
  pickRandomTiles: 0
  addToRandomTiles: 0
